{
  "name": "@abstraktor/z-abs-complayer-codeeditor-server",
  "version": "0.0.0-aj-beta.12",
  "lockfileVersion": 3,
  "requires": true,
  "packages": {
    "": {
      "name": "@abstraktor/z-abs-complayer-codeeditor-server",
      "version": "0.0.0-aj-beta.12",
      "license": "SEE LICENSE IN License agreement ActorJs.pdf"
    }
  }
}
